{
  "pages": [
    {
      "id": "Page1",
      "isDefault": true
    }
  ],
  "viewMode": false,
  "appIsExample": false,
  "unreadCommentThreads": 0,
  "color": "#FFEFDB",
  "icon": "shopper",
  "unpublishedAppLayout": {
    "type": "DESKTOP"
  },
  "publishedAppLayout": {
    "type": "DESKTOP"
  },
  "evaluationVersion": 2,
  "applicationVersion": 2,
  "isManualUpdate": false,
  "deleted": false
}